alu_test.sim/sim_1/behav/xsim/simulate.log
Vivado Simulator 2019.1
Time resolution is 1 ps
Time: 0 A=0, B=0, Cin=0, S=000, Y=0
Time: 10 A=1, B=0, Cin=0, S=000, Y=0
Time: 20 A=1, B=1, Cin=0, S=000, Y=1
Time: 30 A=0, B=1, Cin=0, S=001, Y=1
Time: 40 A=0, B=1, Cin=1, S=001, Y=0
Time: 50 A=1, B=1, Cin=1, S=001, Y=1
Time: 60 A=0, B=1, Cin=0, S=010, Y=1
Time: 70 A=1, B=1, Cin=0, S=010, Y=0
Time: 80 A=1, B=0, Cin=0, S=100, Y=1
Time: 90 A=1, B=1, Cin=0, S=100, Y=1
Time: 100 A=1, B=0, Cin=0, S=101, Y=1
Time: 110 A=1, B=1, Cin=0, S=101, Y=0
Time: 120 A=1, B=0, Cin=0, S=110, Y=0
Time: 130 A=0, B=0, Cin=0, S=110, Y=1
$stop called at time : 140 ns : File "D:/minor_project/rev/alu_test/alu_test.srcs/sim_1/new/alu_tb.v" Line 48
